Flow report for urs_top
Fri Apr  3 21:26:22 2020
Quartus Prime Version 18.0.0 Build 614 04/24/2018 SJ Lite Edition


---------------------
; Table of Contents ;
---------------------
  1. Legal Notice
  2. Flow Summary
  3. Flow Settings
  4. Flow Non-Default Global Settings
  5. Flow Elapsed Time
  6. Flow OS Summary
  7. Flow Log
  8. Flow Messages
  9. Flow Suppressed Messages



----------------
; Legal Notice ;
----------------
Copyright (C) 2018  Intel Corporation. All rights reserved.
Your use of Intel Corporation's design tools, logic functions 
and other software and tools, and its AMPP partner logic 
functions, and any output files from any of the foregoing 
(including device programming or simulation files), and any 
associated documentation or information are expressly subject 
to the terms and conditions of the Intel Program License 
Subscription Agreement, the Intel Quartus Prime License Agreement,
the Intel FPGA IP License Agreement, or other applicable license
agreement, including, without limitation, that your use is for
the sole purpose of programming logic devices manufactured by
Intel and sold by Intel or its authorized distributors.  Please
refer to the applicable agreement for further details.



+-------------------------------------------------------------------------------+
; Flow Summary                                                                  ;
+---------------------------------+---------------------------------------------+
; Flow Status                     ; Successful - Fri Apr  3 21:25:10 2020       ;
; Quartus Prime Version           ; 18.0.0 Build 614 04/24/2018 SJ Lite Edition ;
; Revision Name                   ; urs_top                                     ;
; Top-level Entity Name           ; urs_top                                     ;
; Family                          ; Cyclone V                                   ;
; Device                          ; 5CSEMA5F31C6                                ;
; Timing Models                   ; Final                                       ;
; Logic utilization (in ALMs)     ; 241 / 32,070 ( < 1 % )                      ;
; Total registers                 ; 497                                         ;
; Total pins                      ; 147 / 457 ( 32 % )                          ;
; Total virtual pins              ; 0                                           ;
; Total block memory bits         ; 0 / 4,065,280 ( 0 % )                       ;
; Total DSP Blocks                ; 0 / 87 ( 0 % )                              ;
; Total HSSI RX PCSs              ; 0                                           ;
; Total HSSI PMA RX Deserializers ; 0                                           ;
; Total HSSI TX PCSs              ; 0                                           ;
; Total HSSI PMA TX Serializers   ; 0                                           ;
; Total PLLs                      ; 0 / 6 ( 0 % )                               ;
; Total DLLs                      ; 1 / 4 ( 25 % )                              ;
+---------------------------------+---------------------------------------------+


+-----------------------------------------+
; Flow Settings                           ;
+-------------------+---------------------+
; Option            ; Setting             ;
+-------------------+---------------------+
; Start date & time ; 04/03/2020 21:16:11 ;
; Main task         ; Compilation         ;
; Revision Name     ; urs_top             ;
+-------------------+---------------------+


+----------------------------------------------------------------------------------------------------------------------------------------------------------------------+
; Flow Non-Default Global Settings                                                                                                                                     ;
+---------------------------------------+---------------------------------------------------------------------+---------------+---------------------------+------------+
; Assignment Name                       ; Value                                                               ; Default Value ; Entity Name               ; Section Id ;
+---------------------------------------+---------------------------------------------------------------------+---------------+---------------------------+------------+
; COMPILER_SIGNATURE_ID                 ; 74889870609487.158594137106711                                      ; --            ; --                        ; --         ;
; ECO_REGENERATE_REPORT                 ; On                                                                  ; Off           ; --                        ; --         ;
; HPS_ISW_FILE                          ; urs_1/synthesis/submodules/sequencer/tclrpt.pre.c                   ; --            ; urs_1_hps_0_hps_io_border ; --         ;
; HPS_ISW_FILE                          ; urs_1/synthesis/submodules/sequencer/alt_types.pre.h                ; --            ; urs_1_hps_0_hps_io_border ; --         ;
; HPS_ISW_FILE                          ; urs_1/synthesis/submodules/sequencer/sequencer_auto.pre.h           ; --            ; urs_1_hps_0_hps_io_border ; --         ;
; HPS_ISW_FILE                          ; urs_1/synthesis/submodules/sequencer/tclrpt.pre.h                   ; --            ; urs_1_hps_0_hps_io_border ; --         ;
; HPS_ISW_FILE                          ; urs_1/synthesis/submodules/sequencer/sequencer_defines.pre.h        ; --            ; urs_1_hps_0_hps_io_border ; --         ;
; HPS_ISW_FILE                          ; urs_1/synthesis/submodules/sequencer/sequencer_auto_inst_init.pre.c ; --            ; urs_1_hps_0_hps_io_border ; --         ;
; HPS_ISW_FILE                          ; urs_1/synthesis/submodules/sequencer/emif.pre.xml                   ; --            ; urs_1_hps_0_hps_io_border ; --         ;
; HPS_ISW_FILE                          ; urs_1/synthesis/submodules/sequencer/sequencer.pre.c                ; --            ; urs_1_hps_0_hps_io_border ; --         ;
; HPS_ISW_FILE                          ; urs_1/synthesis/submodules/sequencer/sequencer.pre.h                ; --            ; urs_1_hps_0_hps_io_border ; --         ;
; HPS_ISW_FILE                          ; urs_1/synthesis/submodules/sequencer/sequencer_auto_ac_init.pre.c   ; --            ; urs_1_hps_0_hps_io_border ; --         ;
; HPS_ISW_FILE                          ; urs_1/synthesis/submodules/sequencer/sdram_io.pre.h                 ; --            ; urs_1_hps_0_hps_io_border ; --         ;
; HPS_ISW_FILE                          ; urs_1/synthesis/submodules/sequencer/system.pre.h                   ; --            ; urs_1_hps_0_hps_io_border ; --         ;
; HPS_ISW_FILE                          ; urs_1/synthesis/submodules/hps.pre.xml                              ; --            ; urs_1_hps_0_hps_io_border ; --         ;
; HPS_PARTITION                         ; On                                                                  ; --            ; urs_1_hps_0_hps_io_border ; --         ;
; MAX_CORE_JUNCTION_TEMP                ; 85                                                                  ; --            ; --                        ; --         ;
; MIN_CORE_JUNCTION_TEMP                ; 0                                                                   ; --            ; --                        ; --         ;
; MISC_FILE                             ; urs_1/synthesis/../urs_1.cmp                                        ; --            ; --                        ; --         ;
; MISC_FILE                             ; urs_1/synthesis/urs_1_hps_0_hps.svd                                 ; --            ; --                        ; --         ;
; MISC_FILE                             ; urs_1/synthesis/../../urs_1.qsys                                    ; --            ; --                        ; --         ;
; MISC_FILE                             ; urs_1/synthesis/submodules/sequencer/tclrpt.pre.c                   ; --            ; --                        ; --         ;
; MISC_FILE                             ; urs_1/synthesis/submodules/sequencer/alt_types.pre.h                ; --            ; --                        ; --         ;
; MISC_FILE                             ; urs_1/synthesis/submodules/sequencer/sequencer_auto.pre.h           ; --            ; --                        ; --         ;
; MISC_FILE                             ; urs_1/synthesis/submodules/sequencer/tclrpt.pre.h                   ; --            ; --                        ; --         ;
; MISC_FILE                             ; urs_1/synthesis/submodules/sequencer/sequencer_defines.pre.h        ; --            ; --                        ; --         ;
; MISC_FILE                             ; urs_1/synthesis/submodules/sequencer/sequencer_auto_inst_init.pre.c ; --            ; --                        ; --         ;
; MISC_FILE                             ; urs_1/synthesis/submodules/sequencer/emif.pre.xml                   ; --            ; --                        ; --         ;
; MISC_FILE                             ; urs_1/synthesis/submodules/sequencer/sequencer.pre.c                ; --            ; --                        ; --         ;
; MISC_FILE                             ; urs_1/synthesis/submodules/sequencer/sequencer.pre.h                ; --            ; --                        ; --         ;
; MISC_FILE                             ; urs_1/synthesis/submodules/sequencer/sequencer_auto_ac_init.pre.c   ; --            ; --                        ; --         ;
; MISC_FILE                             ; urs_1/synthesis/submodules/sequencer/sdram_io.pre.h                 ; --            ; --                        ; --         ;
; MISC_FILE                             ; urs_1/synthesis/submodules/sequencer/system.pre.h                   ; --            ; --                        ; --         ;
; MISC_FILE                             ; urs_1/synthesis/submodules/hps.pre.xml                              ; --            ; --                        ; --         ;
; PARTITION_COLOR                       ; -- (Not supported for targeted family)                              ; --            ; --                        ; Top        ;
; PARTITION_FITTER_PRESERVATION_LEVEL   ; -- (Not supported for targeted family)                              ; --            ; --                        ; Top        ;
; PARTITION_NETLIST_TYPE                ; -- (Not supported for targeted family)                              ; --            ; --                        ; Top        ;
; POWER_BOARD_THERMAL_MODEL             ; None (CONSERVATIVE)                                                 ; --            ; --                        ; --         ;
; POWER_PRESET_COOLING_SOLUTION         ; 23 MM HEAT SINK WITH 200 LFPM AIRFLOW                               ; --            ; --                        ; --         ;
; PROJECT_OUTPUT_DIRECTORY              ; output_files                                                        ; --            ; --                        ; --         ;
; SLD_FILE                              ; urs_1/synthesis/urs_1.regmap                                        ; --            ; --                        ; --         ;
; SLD_FILE                              ; urs_1/synthesis/urs_1.debuginfo                                     ; --            ; --                        ; --         ;
; SLD_INFO                              ; QSYS_NAME urs_1 HAS_SOPCINFO 1 GENERATION_ID 1585939639             ; --            ; urs_1                     ; --         ;
; SOPCINFO_FILE                         ; urs_1/synthesis/../../urs_1.sopcinfo                                ; --            ; --                        ; --         ;
; SYNTHESIS_ONLY_QIP                    ; On                                                                  ; --            ; --                        ; --         ;
; USE_DLL_FREQUENCY_FOR_DQS_DELAY_CHAIN ; On                                                                  ; Off           ; --                        ; --         ;
+---------------------------------------+---------------------------------------------------------------------+---------------+---------------------------+------------+


+--------------------------------------------------------------------------------------------------------------------------+
; Flow Elapsed Time                                                                                                        ;
+----------------------+--------------+-------------------------+---------------------+------------------------------------+
; Module Name          ; Elapsed Time ; Average Processors Used ; Peak Virtual Memory ; Total CPU Time (on all processors) ;
+----------------------+--------------+-------------------------+---------------------+------------------------------------+
; Analysis & Synthesis ; 00:00:32     ; 1.0                     ; 1230 MB             ; 00:01:02                           ;
; Fitter               ; 00:02:13     ; 1.0                     ; 2875 MB             ; 00:02:54                           ;
; Assembler            ; 00:00:27     ; 1.0                     ; 1017 MB             ; 00:00:25                           ;
; Timing Analyzer      ; 00:01:10     ; 1.0                     ; 1613 MB             ; 00:01:10                           ;
; Total                ; 00:04:22     ; --                      ; --                  ; 00:05:31                           ;
+----------------------+--------------+-------------------------+---------------------+------------------------------------+


+----------------------------------------------------------------------------------------+
; Flow OS Summary                                                                        ;
+----------------------+------------------+----------------+------------+----------------+
; Module Name          ; Machine Hostname ; OS Name        ; OS Version ; Processor type ;
+----------------------+------------------+----------------+------------+----------------+
; Analysis & Synthesis ; ubuntu-laptop    ; Ubuntu 18.04.4 ; 18         ; x86_64         ;
; Fitter               ; ubuntu-laptop    ; Ubuntu 18.04.4 ; 18         ; x86_64         ;
; Assembler            ; ubuntu-laptop    ; Ubuntu 18.04.4 ; 18         ; x86_64         ;
; Timing Analyzer      ; ubuntu-laptop    ; Ubuntu 18.04.4 ; 18         ; x86_64         ;
+----------------------+------------------+----------------+------------+----------------+


------------
; Flow Log ;
------------
quartus_map --read_settings_files=on --write_settings_files=off urs_top -c urs_top
quartus_fit --read_settings_files=off --write_settings_files=off urs_top -c urs_top
quartus_asm --read_settings_files=off --write_settings_files=off urs_top -c urs_top
quartus_sta urs_top -c urs_top



